{
    "js" : {
        "files": ["<%= assets %>/js/**/*.js"],
        "tasks": ["eslint:dev", "concat:user", "babel"]
    },
    "scss" : {
        "files": ["<%= assets %>/stylesheets/**/*.scss"],
        "tasks": ["sass", "postcss"]
    },
    "options" : {
        "spawn" : false
    }
}